{
  "name": "Punch Grass",
  "category": "starting",
  "icon": "minecraft:tallgrass:1",
  "sortnum": 0,
  "pages": [
    {
      "type": "text",
      "text": "You may have heard rumors that the first step to survival is to punch trees. This is incorrect. Trees have evolved natural defenses to your pitful fists, such as being made of wood. You should start with grass instead, since it is weaker."
    },
    {
      "type": "item_group",
      "title": "The Bounty of Grass",
      "item1": "primal:plant_fiber",
      "desc1": "$(item)Plant fiber$(): it's like string, but plants!",
      "item2": "minecraft:flint",
      "desc2": "$(item)Flint$(): it contains sharp edges if you ask nicely.",
      "item3": "primal:rock_stone",
      "desc3": "$(item)Rocks$(): Boring. But they can be useful.",
      "item4": "primal:tall_grass_seeds",
      "desc4": "$(item)Grass seeds$(): they grow into grass. Not wheat. $(bold)Do not$() expect wheat."
    }
  ]
}