{
  "name": "Make Things",
  "category": "starting",
  "icon": "artisanworktables:worktable:5",
  "sortnum": 30,
  "pages": [
    {
      "type": "text",
      "text": "Holding things is hard. Holding things and doing things at the same time is harder. That's why you should make a table. And not just any table, a worktable. For working."
    },
    {
      "type": "crafting",
      "recipe": "crafttweaker:pseu_earlygame_basic_worktable",
      "text": "By simply smacking a log with your hatchet, you can create a table. It's like carpentry, but stupider."
    },
    {
      "type": "text",
      "text": "You can now make a number of flint tools, but one of the most important is a work blade. For working.$(br2)Please note that with this book you have received a complementary copy of our workshop assistant telepathy, which you can use to find out how to make most things. This book and its companions will only highlight vital equipment and procedures."
    },
    {
      "type": "artisan_recipe",
      "anchor": "workblade",
      "title": "Flint Work Blade",
      "primary.i2": "primal:flint_knapp",
      "primary.i3": "primal:flint_point",
      "primary.i4": "primal:flint_knapp",
      "primary.i5": "primal:plant_cordage",
      "primary.i6": "primal:flint_knapp",
      "primary.i7": "minecraft:stick",
      "primary.i8": "primal:flint_knapp",
      "output": "primal:flint_workblade"
    }
  ]
}