{
    "components": [
        {
            "type": "item",
            "item": "#i1",
            "guard": "#i1->iexists",
            "x": 4,
            "y": 4
        },
        {
            "type": "item",
            "item": "#i2",
            "guard": "#i2->iexists",
            "x": 23,
            "y": 4
        },
        {
            "type": "item",
            "item": "#i3",
            "guard": "#i3->iexists",
            "x": 42,
            "y": 4
        }
    ]
}